<svg width="640" height="480" version="1.1" viewBox="0 0 640 480" xmlns="http://www.w3.org/2000/svg" xmlns:cc="http://creativecommons.org/ns#" xmlns:dc="http://purl.org/dc/elements/1.1/" xmlns:rdf="http://www.w3.org/1999/02/22-rdf-syntax-ns#" xmlns:xlink="http://www.w3.org/1999/xlink">
	<metadata>
		<rdf:RDF>
			<cc:Work rdf:about="">
				<dc:format>image/svg+xml</dc:format>
				<dc:type rdf:resource="http://purl.org/dc/dcmitype/StillImage"/>
				<cc:license rdf:resource="http://creativecommons.org/licenses/by-sa/4.0/"/>
				<dc:creator>
					<cc:Agent>
						<dc:title>Márcio Silva &lt;coadde at hyperbola dot info&gt;</dc:title>
					</cc:Agent>
				</dc:creator>
				<dc:title/>
			</cc:Work>
			<cc:License rdf:about="http://creativecommons.org/licenses/by-sa/4.0/">
				<cc:permits rdf:resource="http://creativecommons.org/ns#Reproduction"/>
				<cc:permits rdf:resource="http://creativecommons.org/ns#Distribution"/>
				<cc:requires rdf:resource="http://creativecommons.org/ns#Notice"/>
				<cc:requires rdf:resource="http://creativecommons.org/ns#Attribution"/>
				<cc:permits rdf:resource="http://creativecommons.org/ns#DerivativeWorks"/>
				<cc:requires rdf:resource="http://creativecommons.org/ns#ShareAlike"/>
			</cc:License>
		</rdf:RDF>
	</metadata>
	<defs>
		<filter id="m" x="-.0077735" y="-.0048854" width="1.0155" height="1.0098" color-interpolation-filters="sRGB">
			<feGaussianBlur stdDeviation="1.020041"/>
		</filter>
		<linearGradient id="i" x1="310.8" x2="330.24" y1="89.43" y2="193.75" gradientUnits="userSpaceOnUse" xlink:href="#a"/>
		<linearGradient id="a">
			<stop stop-color="#fff" offset="0"/>
			<stop stop-color="#fff" stop-opacity="0" offset="1"/>
		</linearGradient>
		<filter id="l" x="-.021924" y="-.02651" width="1.0438" height="1.053" color-interpolation-filters="sRGB">
			<feGaussianBlur stdDeviation="2.8583042"/>
		</filter>
		<linearGradient id="h" x1="298.52" x2="384.9" y1="18.566" y2="163.74" gradientUnits="userSpaceOnUse" xlink:href="#a"/>
		<filter id="d" x="-.022953" y="-.025147" width="1.0459" height="1.0503" color-interpolation-filters="sRGB">
			<feGaussianBlur stdDeviation="2.8774877"/>
		</filter>
		<linearGradient id="g" x1="285.08" x2="333.29" y1="13.262" y2="75.25" gradientUnits="userSpaceOnUse" xlink:href="#b"/>
		<linearGradient id="b">
			<stop stop-color="#0c0c0c" offset="0"/>
			<stop stop-color="#0c0c0c" stop-opacity="0" offset="1"/>
		</linearGradient>
		<filter id="k" x="-.023423" y="-.024607" width="1.0468" height="1.0492" color-interpolation-filters="sRGB">
			<feGaussianBlur stdDeviation="2.655951"/>
		</filter>
		<linearGradient id="f" x1="297.78" x2="355.7" y1="6.1717" y2="152.94" gradientUnits="userSpaceOnUse" xlink:href="#b"/>
		<filter id="c" x="-.02139" y="-.027335" width="1.0428" height="1.0547" color-interpolation-filters="sRGB">
			<feGaussianBlur stdDeviation="2.7084436"/>
		</filter>
		<linearGradient id="e" x1="267.55" x2="460.21" y1="-91.998" y2="-221.36" gradientUnits="userSpaceOnUse" xlink:href="#a"/>
		<filter id="j" x="-.031511" y="-.041981" width="1.063" height="1.084" color-interpolation-filters="sRGB">
			<feGaussianBlur stdDeviation="2.6869681"/>
		</filter>
		<linearGradient id="o" x1="300.03" x2="376.22" y1="-60.02" y2="-208.62" gradientUnits="userSpaceOnUse" xlink:href="#b"/>
		<linearGradient id="n" x1="235.04" x2="420.02" y1="-100.43" y2="-100.43" gradientUnits="userSpaceOnUse" xlink:href="#a"/>
	</defs>
	<rect width="640" height="480"/>
	<path d="m179.65 61.174v49.424h4.9492v-23.207h25.613v23.207h4.9492v-49.424h-4.9492v21.736h-25.613v-21.736h-4.9492zm190.1 0v49.424h4.9492v-6.2871c3.0764 4.5477 8.2935 7.1562 14.312 7.1562 11.035 0 19.328-8.2254 19.328-19.193 0-10.767-8.4275-19.127-19.262-19.127-6.1528 0-11.236 2.5397-14.379 7.1543v-19.127h-4.9492zm89.346 0v49.424h4.9492v-49.424h-4.9492zm-179.61 11.973c-6.2865 0-11.236 2.4728-14.379 7.1543v-6.2852h-4.9473v49.422h4.9473v-19.127c3.2101 4.6815 8.1602 7.1562 14.246 7.1562 10.968 0 19.395-8.3601 19.395-19.061 0-10.968-8.3606-19.26-19.262-19.26zm43.781 0c-10.634 0-18.926 8.3586-18.926 18.992 0 10.834 8.4939 19.328 19.328 19.328 7.9585 0 15.114-5.1504 17.789-12.908h-5.1504c-2.0732 5.0158-7.2226 8.3613-12.773 8.3613-7.5572 0-13.843-5.7518-14.244-12.975h33.104c0-5.0158-0.6689-8.0926-2.4746-11.303-3.277-5.8853-9.6302-9.4961-16.652-9.4961zm41.291 0c-5.2834 0.26751-8.4277 2.0733-10.367 6.0859v-5.2168h-4.9492v36.582h4.9492v-21.334c-0.06688-6.6209 3.6125-10.701 10.367-11.236v-4.8809zm68.568 0c-10.901 0-19.193 8.2253-19.193 18.926 0 11.302 8.2245 19.395 19.594 19.395 10.7 0 18.592-8.0926 18.592-19.061 0-11.169-7.9573-19.26-18.992-19.26zm57.148 0c-10.968 0-19.262 8.2918-19.262 19.26 0 10.968 8.3597 19.061 19.662 19.061 6.2197 0 10.099-2.0057 14.045-7.2891v6.4199h4.9492v-36.582h-4.9492v6.4863c-3.6783-5.0827-8.0919-7.3555-14.445-7.3555zm-269.52 0.86914l14.178 35.377-5.9512 14.045h5.2832l21.133-49.422h-5.2832l-12.373 29.158-11.57-29.158h-5.416zm58.529 3.6777c8.2929 0 14.445 6.2863 14.445 14.713 0 8.226-6.2198 14.514-14.379 14.514-8.3598 0-14.58-6.2877-14.58-14.781 0-8.0922 6.3546-14.445 14.514-14.445zm43.98 0c7.0891 0 12.439 4.4149 14.178 11.771h-28.021c1.3376-7.0222 6.8884-11.771 13.844-11.771zm65.676 0c8.226 0 14.379 6.2193 14.379 14.445 0 8.4266-6.1524 14.781-14.445 14.781-4.0796 0-7.4231-1.405-10.299-4.3476-2.8758-2.9426-4.2129-6.2872-4.2129-10.434 0-8.1591 6.3521-14.445 14.578-14.445zm44.184 0c8.0922 0 13.977 6.2189 13.977 14.779 0 8.4266-5.7505 14.447-13.709 14.447-8.4266 0-14.445-6.0876-14.445-14.715 0-8.2929 6.0855-14.512 14.178-14.512zm57.281 0c8.0922 0 14.312 6.2862 14.312 14.445 0 8.3597-6.1533 14.781-14.045 14.781-8.2929 0-14.646-6.4879-14.646-14.848 0-7.9585 6.4204-14.379 14.379-14.379z" fill="#fff" stroke-width=".7868"/>
	<path d="m528.16 72.4c-6.8294 0-12.244 5.2867-12.244 11.99 0 6.8294 5.5082 12.086 12.652 12.086 3.5249 0 6.515-1.2275 8.8125-3.5879 2.1401-2.2345 3.3359-5.1293 3.3359-8.1191v-0.56641h-15.201v4.0273h9.6309c-1.2274 2.5807-3.7458 4.0918-6.8301 4.0918-4.5634 0-8.0566-3.3982-8.0566-7.8672 0-2.0142 0.85005-4.2185 2.1719-5.6348 1.3533-1.4477 3.3983-2.2656 5.6328-2.2656 2.7066 0 4.9724 1.1012 6.3887 3.084h5.0684c-1.5106-4.1858-6.2943-7.2383-11.361-7.2383zm15.385 0.41016v23.258h4.3106v-16.902l9.7246 16.902h4.8164v-23.258h-4.3125v16.932l-9.6309-16.932h-4.9082zm23.297 0v14.729c0 2.4863 0.3766 4.0898 1.2578 5.4746 1.3533 2.1401 3.8715 3.4629 6.5781 3.4629 2.5492 0 4.9102-1.1334 6.2949-2.9902 1.1015-1.5107 1.5723-3.2407 1.5723-5.9473v-14.729h-4.3106v14.729c0 1.731-0.1258 2.4537-0.5664 3.209-0.59797 0.97563-1.6999 1.5742-2.9902 1.5742-1.2589 0-2.361-0.59859-2.959-1.5742-0.44061-0.75533-0.56641-1.478-0.56641-3.209v-14.729h-4.3106zm-50.924 27.023v10.902h5.3555v-1.9336h-3.334v-8.9687h-2.0215zm6.248 0v1.8437h1.9629v-1.8437h-1.9629zm34.865 0v10.902h1.9609v-10.902h-1.9609zm3.543 0v1.8437h1.9629v-1.8437h-1.9629zm3.5449 0v10.902h1.7988v-1.0469c0.84089 0.89991 1.6223 1.2383 2.832 1.2383 1.2687 0 2.273-0.47272 3.0254-1.4316 0.6196-0.79663 0.95898-1.8146 0.95898-2.9062 0-2.4784-1.7568-4.3223-4.1172-4.3223-1.0769 0-1.77 0.29645-2.5371 1.0488v-3.4824h-1.9609zm-34.293 2.5371c-0.94416 0-1.5779 0.26649-2.3008 0.97461v-0.7832h-1.8145v8.1738h1.9609v-3.8496c0-1.0917 0.07343-1.5646 0.32422-1.9629 0.3098-0.48683 0.81291-0.75196 1.4473-0.75195 0.51633 0 0.91414 0.17631 1.1797 0.51562 0.26555 0.35406 0.38282 0.9591 0.38282 2.0508v3.998h1.9629v-4.3809c0-1.4605-0.14727-2.1684-0.58985-2.8027-0.53109-0.76713-1.4168-1.1816-2.5527-1.1816zm47.602 0c-0.84089 0-1.2532 0.23591-1.7695 0.98829v-0.79688h-1.8008v8.1738h1.9629v-4.543c-0.04426-1.2097 0.57371-1.8893 1.7539-1.9336v-1.8887h-0.14649zm4.8203 0c-2.4046 0-4.3066 1.9039-4.3066 4.3086 0 2.3899 1.9326 4.248 4.4258 4.248 1.3425 0 2.3885-0.48619 3.2442-1.4746 0.3098-0.38356 0.51761-0.72364 0.65039-1.1367h-2.1406c-0.50158 0.5901-0.98744 0.8125-1.7988 0.8125-1.1654 0-2.0218-0.62096-2.2578-1.6094h6.3301c0.05901-0.29505 0.07226-0.47057 0.07226-0.76562 0-2.5227-1.7846-4.3828-4.2188-4.3828zm-60.082 0.19141v8.1738h1.9629v-8.1738h-1.9629zm12.391 0v4.3828c0 1.3867 0.16181 2.1096 0.61914 2.7734 0.54584 0.78188 1.4152 1.209 2.4922 1.209 0.98841 0 1.5933-0.24978 2.3457-0.97265v0.78125h1.8144v-8.1738h-1.9609v3.8516c0 1.0917-0.0745 1.6069-0.31054 1.9609-0.2803 0.48683-0.82637 0.75391-1.4902 0.75391-0.50158 0-0.88484-0.16352-1.1504-0.51758-0.28029-0.35406-0.39844-0.94435-0.39844-2.0508v-3.998h-1.9609zm8.3887 0l2.5078 3.9551-2.8906 4.2188h2.3594l1.7109-2.8027 1.7129 2.8027h2.3594l-2.9062-4.2188 2.4941-3.9551h-2.2129l-1.4473 2.4648-1.4746-2.4648h-2.2129zm17.629 0v8.1738h1.9629v-8.1738h-1.9629zm7.7637 1.5059c1.4015 0 2.4199 1.0619 2.4199 2.5371 0 1.5048-0.97351 2.5234-2.375 2.5234-1.431 0-2.4199-1.0491-2.4199-2.5391 0-1.4752 0.98826-2.5215 2.375-2.5215zm13.939 0.10352c1.2097 0 2.007 0.57561 2.2578 1.623h-4.5293c0.3098-1.0622 1.106-1.623 2.2715-1.623zm-31.146 1.4453v1.7402h4.0859v-1.7402h-4.0859z" fill="#c0c0c0" stroke-width=".7868"/>
	<g transform="matrix(.26315 .086941 -.086941 .26315 53.793 60.758)" fill-rule="evenodd" shape-rendering="auto">
		<g transform="matrix(1.0813,0,0,1.0813,6.0196,-23.041)" fill="#c0c0c0" filter="url(#m)" stroke="#000" stroke-linecap="round" stroke-linejoin="round" stroke-width=".48936" style="paint-order:markers fill stroke">
			<path d="m87.522 295.97c148.34-454.22 288.19-271.16 311.24-102.67-74.967-126.99-133.52-148.7-311.24 102.67z" color="#000000" color-rendering="auto" image-rendering="auto" solid-color="#000000" style="isolation:auto;mix-blend-mode:normal;paint-order:markers fill stroke"/>
			<path d="m202.43-143.65c47.279 150.75 141.22 34.857 200.02-61.486-37.983 250.88-216.29 251.88-200.02 61.486z" color="#000000" color-rendering="auto" image-rendering="auto" solid-color="#000000" style="isolation:auto;mix-blend-mode:normal;paint-order:markers fill stroke"/>
		</g>
		<path d="m123.98 265.25c253.24-379.49 305.4-37.798 305.4-108.86-100.48-187.19-250.62 0.76926-305.4 108.86z" color="#000000" color-rendering="auto" fill="url(#i)" filter="url(#l)" image-rendering="auto" solid-color="#000000" style="isolation:auto;mix-blend-mode:normal"/>
		<path d="m111.88 275.08c167.63-451.13 282.73-226.03 300.87-159.51-62.238-115.6-149.64-157.87-300.87 159.51z" color="#000000" color-rendering="auto" fill="url(#h)" filter="url(#d)" image-rendering="auto" solid-color="#000000" style="isolation:auto;mix-blend-mode:normal"/>
		<path d="m117.17 249.38c134.56-360.59 241.9-260.05 272.14-194.28-74.02-126.72-179.56-55.171-272.14 194.28z" color="#000000" color-rendering="auto" fill="url(#g)" filter="url(#k)" image-rendering="auto" solid-color="#000000" style="isolation:auto;mix-blend-mode:normal"/>
		<path d="m111.88 275.08c177.65-339.42 245.68-245.68 303.89-142.88-105.51-180.65-185.74-43.778-303.89 142.88z" color="#000000" color-rendering="auto" fill="url(#f)" filter="url(#c)" image-rendering="auto" solid-color="#000000" style="isolation:auto;mix-blend-mode:normal"/>
		<path d="m227.34-156.83c74.622 162.52 183.3-47.494 204.65-65.427-33.373 123.87-177.44 238.76-204.65 65.427z" color="#000000" color-rendering="auto" fill="url(#e)" filter="url(#j)" image-rendering="auto" solid-color="#000000" style="isolation:auto;mix-blend-mode:normal"/>
		<path d="m228.41-129.03c65.396 169.46 182.61-30.8 200.19-68.04-62.747 132.59-151.53 203.18-200.19 68.04z" color="#000000" color-rendering="auto" fill="url(#o)" filter="url(#c)" image-rendering="auto" solid-color="#000000" style="isolation:auto;mix-blend-mode:normal"/>
		<path d="m239.1-89.478c72.484 125.1 159.78-30.388 176.86-69.703-20.544 30.865-97.26 188.51-176.86 69.703z" color="#000000" color-rendering="auto" fill="url(#n)" filter="url(#d)" image-rendering="auto" solid-color="#000000" style="isolation:auto;mix-blend-mode:normal"/>
	</g>
</svg>
